STEM Fellowship R Workshop
…
Exercise 1: find the maximum of each column in the trees dataset.

One of the nice things about these packages, is that they come with a cheatsheet which is very helpful to have nearby. You can find them via Google. Link for dplyr cheatsheet. Take a look at this cheatsheet and try some of the functions.

The three that I find especially useful are select, filter, and mutate. While select and filter are self-explanatory, mutate is not. The mutate function in dplyr performs some operation and appends a colummn to the end of your data table. Lets see some examples.

# take note of the piping operator

# pipes pass the output of the commands preceding it into the first 
# argument of the next command 

trees %>% dplyr::mutate(Girth_cm = Girth*2.23)

## # A tibble: 31 x 4
##    Girth Height Volume Girth_cm
##    <dbl>  <dbl>  <dbl>    <dbl>
##  1   8.3     70   10.3     18.5
##  2   8.6     65   10.3     19.2
##  3   8.8     63   10.2     19.6
##  4  10.5     72   16.4     23.4
##  5  10.7     81   18.8     23.9
##  6  10.8     83   19.7     24.1
##  7  11       66   15.6     24.5
##  8  11       75   18.2     24.5
##  9  11.1     80   22.6     24.8
## 10  11.2     75   19.9     25.0
## #  with 21 more rows

trees %>% 
  dplyr::mutate(Girth_cm = round(Girth*2.23,2)) %>% 
  dplyr::select(Height, Volume, Girth_cm)

## # A tibble: 31 x 3
##    Height Volume Girth_cm
##     <dbl>  <dbl>    <dbl>
##  1     70   10.3     18.5
##  2     65   10.3     19.2
##  3     63   10.2     19.6
##  4     72   16.4     23.4
##  5     81   18.8     23.9
##  6     83   19.7     24.1
##  7     66   15.6     24.5
##  8     75   18.2     24.5
##  9     80   22.6     24.8
## 10     75   19.9     25.0
## #  with 21 more rows
…
## # A tibble: 8 x 3
##   Height Volume Girth_cm
##    <dbl>  <dbl>    <dbl>
## 1     72   38.3     35.7
## 2     77   42.6     36.4
## 3     81   55.4     38.6
## 4     82   55.7     39.0
## 5     80   58.3     39.9
## 6     80   51.5     40.1
## 7     80   51       40.1
## 8     87   77       45.9

Exercise 2: Using the dplyr cheatsheet, create a data table containing only the trees which have a girth greater than 20cm and less than 36cm. Arrange them in ascending order based on the Height.

## # A tibble: 21 x 3
##    Height Volume Girth_cm
##     <dbl>  <dbl>    <dbl>
##  1     64   24.9     30.8
##  2     66   15.6     24.5
##  3     69   21.3     26.1
##  4     71   25.7     30.6
##  5     72   16.4     23.4
##  6     72   38.3     35.7
##  7     74   22.2     28.8
##  8     74   36.3     32.3
##  9     75   18.2     24.5
## 10     75   19.9     25.0
## #  with 11 more rows
…
