R Seminar for Stem Week 2
…
Exercise

Create a bar graph for the color of the diamonds.

Create 2 more dot plots for any of the numerical variables. Do not include a line of best fit on one of them.

One of the convenient features of tidyverse is the cross-compatability of its various constituent packages. Here we will explore how to combine dplyr and ggplot2 in order create more specific graphs. Suppose we were interested in certain subsets of the diamonds data set. Solve the 3 questions below using the filter function available in dplyr (or any other means you can come up with).

How many cost less than $500?

diamonds %>% 
  filter(price < 500)

## # A tibble: 1,729 x 10
##    carat cut       color clarity depth table price     x     y     z
##    <dbl> <ord>     <ord> <ord>   <dbl> <dbl> <int> <dbl> <dbl> <dbl>
##  1 0.23  Ideal     E     SI2      61.5    55   326  3.95  3.98  2.43
##  2 0.21  Premium   E     SI1      59.8    61   326  3.89  3.84  2.31
##  3 0.23  Good      E     VS1      56.9    65   327  4.05  4.07  2.31
##  4 0.290 Premium   I     VS2      62.4    58   334  4.2   4.23  2.63
##  5 0.31  Good      J     SI2      63.3    58   335  4.34  4.35  2.75
##  6 0.24  Very Good J     VVS2     62.8    57   336  3.94  3.96  2.48
##  7 0.24  Very Good I     VVS1     62.3    57   336  3.95  3.98  2.47
##  8 0.26  Very Good H     SI1      61.9    55   337  4.07  4.11  2.53
##  9 0.22  Fair      E     VS2      65.1    61   337  3.87  3.78  2.49
## 10 0.23  Very Good H     VS1      59.4    61   338  4     4.05  2.39
## #  with 1,719 more rows
How many cost less than $250?

diamonds %>% 
  filter(price < 250)

## # A tibble: 0 x 10
## #  with 10 variables: carat <dbl>, cut <ord>, color <ord>, clarity <ord>,
## #   depth <dbl>, table <dbl>, price <int>, x <dbl>, y <dbl>, z <dbl>

How many cost equal to $15,000 or more?

diamonds %>% 
  filter(price > 15000)

## # A tibble: 1,655 x 10
##    carat cut       color clarity depth table price     x     y     z
##    <dbl> <ord>     <ord> <ord>   <dbl> <dbl> <int> <dbl> <dbl> <dbl>
##  1  1.54 Premium   E     VS2      62.3    58 15002  7.31  7.39  4.58
##  2  1.19 Ideal     F     VVS1     61.5    55 15005  6.82  6.84  4.2 
##  3  2.1  Premium   I     SI1      61.5    57 15007  8.25  8.21  5.06
##  4  1.69 Ideal     D     SI1      60.8    57 15011  7.69  7.71  4.68
##  5  1.5  Very Good G     VVS2     62.9    56 15013  7.22  7.32  4.57
##  6  1.73 Very Good G     VS1      62.8    57 15014  7.57  7.72  4.8 
##  7  2.02 Premium   G     SI2      63      59 15014  8.05  7.95  5.03
##  8  2.05 Very Good F     SI2      61.9    56 15017  8.13  8.18  5.05
##  9  1.5  Very Good F     VS1      61.6    58 15022  7.35  7.43  4.55
## 10  1.82 Very Good G     SI1      62.7    58 15025  7.68  7.75  4.84
## #  with 1,645 more rows

How many diamonds cost between $2,00 and $7,500?

diamonds %>% 
  filter(price < 7500) %>% 
  filter(price > 2500)

## # A tibble: 18,012 x 10
##    carat cut       color clarity depth table price     x     y     z
##    <dbl> <ord>     <ord> <ord>   <dbl> <dbl> <int> <dbl> <dbl> <dbl>
##  1  0.7  Ideal     E     SI1      62.5    57  2757  5.7   5.72  3.57
##  2  0.86 Fair      E     SI2      55.1    69  2757  6.45  6.33  3.52
##  3  0.7  Ideal     G     VS2      61.6    56  2757  5.7   5.67  3.5 
##  4  0.71 Very Good E     VS2      62.4    57  2759  5.68  5.73  3.56
##  5  0.78 Very Good G     SI2      63.8    56  2759  5.81  5.85  3.72
##  6  0.7  Good      E     VS2      57.5    58  2759  5.85  5.9   3.38
##  7  0.7  Good      F     VS1      59.4    62  2759  5.71  5.76  3.4 
##  8  0.96 Fair      F     SI2      66.3    62  2759  6.27  5.95  4.07
##  9  0.73 Very Good E     SI1      61.6    59  2760  5.77  5.78  3.56
## 10  0.8  Premium   H     SI1      61.5    58  2760  5.97  5.93  3.66
## #  with 18,002 more rows
…
